{
  "configVersion": 2,
  "packages": [
    {
      "name": "async",
      "rootUri": "file:///Users/anonnaabir/.pub-cache/hosted/pub.dartlang.org/async-2.8.2",
      "packageUri": "lib/",
      "languageVersion": "2.12"
    },
    {
      "name": "boolean_selector",
      "rootUri": "file:///Users/anonnaabir/.pub-cache/hosted/pub.dartlang.org/boolean_selector-2.1.0",
      "packageUri": "lib/",
      "languageVersion": "2.12"
    },
    {
      "name": "characters",
      "rootUri": "file:///Users/anonnaabir/.pub-cache/hosted/pub.dartlang.org/characters-1.2.0",
      "packageUri": "lib/",
      "languageVersion": "2.12"
    },
    {
      "name": "charcode",
      "rootUri": "file:///Users/anonnaabir/.pub-cache/hosted/pub.dartlang.org/charcode-1.3.1",
      "packageUri": "lib/",
      "languageVersion": "2.12"
    },
    {
      "name": "clock",
      "rootUri": "file:///Users/anonnaabir/.pub-cache/hosted/pub.dartlang.org/clock-1.1.0",
      "packageUri": "lib/",
      "languageVersion": "2.12"
    },
    {
      "name": "cloud_firestore",
      "rootUri": "file:///Users/anonnaabir/.pub-cache/hosted/pub.dartlang.org/cloud_firestore-3.1.17",
      "packageUri": "lib/",
      "languageVersion": "2.16"
    },
    {
      "name": "cloud_firestore_platform_interface",
      "rootUri": "file:///Users/anonnaabir/.pub-cache/hosted/pub.dartlang.org/cloud_firestore_platform_interface-5.5.7",
      "packageUri": "lib/",
      "languageVersion": "2.16"
    },
    {
      "name": "cloud_firestore_web",
      "rootUri": "file:///Users/anonnaabir/.pub-cache/hosted/pub.dartlang.org/cloud_firestore_web-2.6.16",
      "packageUri": "lib/",
      "languageVersion": "2.16"
    },
    {
      "name": "collection",
      "rootUri": "file:///Users/anonnaabir/.pub-cache/hosted/pub.dartlang.org/collection-1.16.0",
      "packageUri": "lib/",
      "languageVersion": "2.12"
    },
    {
      "name": "cross_file",
      "rootUri": "file:///Users/anonnaabir/.pub-cache/hosted/pub.dartlang.org/cross_file-0.3.3+1",
      "packageUri": "lib/",
      "languageVersion": "2.12"
    },
    {
      "name": "cupertino_icons",
      "rootUri": "file:///Users/anonnaabir/.pub-cache/hosted/pub.dartlang.org/cupertino_icons-1.0.4",
      "packageUri": "lib/",
      "languageVersion": "2.12"
    },
    {
      "name": "fake_async",
      "rootUri": "file:///Users/anonnaabir/.pub-cache/hosted/pub.dartlang.org/fake_async-1.3.0",
      "packageUri": "lib/",
      "languageVersion": "2.12"
    },
    {
      "name": "firebase_core",
      "rootUri": "file:///Users/anonnaabir/.pub-cache/hosted/pub.dartlang.org/firebase_core-1.17.1",
      "packageUri": "lib/",
      "languageVersion": "2.16"
    },
    {
      "name": "firebase_core_platform_interface",
      "rootUri": "file:///Users/anonnaabir/.pub-cache/hosted/pub.dartlang.org/firebase_core_platform_interface-4.4.0",
      "packageUri": "lib/",
      "languageVersion": "2.16"
    },
    {
      "name": "firebase_core_web",
      "rootUri": "file:///Users/anonnaabir/.pub-cache/hosted/pub.dartlang.org/firebase_core_web-1.6.4",
      "packageUri": "lib/",
      "languageVersion": "2.16"
    },
    {
      "name": "firebase_storage",
      "rootUri": "file:///Users/anonnaabir/.pub-cache/hosted/pub.dartlang.org/firebase_storage-10.2.17",
      "packageUri": "lib/",
      "languageVersion": "2.16"
    },
    {
      "name": "firebase_storage_platform_interface",
      "rootUri": "file:///Users/anonnaabir/.pub-cache/hosted/pub.dartlang.org/firebase_storage_platform_interface-4.1.7",
      "packageUri": "lib/",
      "languageVersion": "2.16"
    },
    {
      "name": "firebase_storage_web",
      "rootUri": "file:///Users/anonnaabir/.pub-cache/hosted/pub.dartlang.org/firebase_storage_web-3.2.16",
      "packageUri": "lib/",
      "languageVersion": "2.16"
    },
    {
      "name": "flutter",
      "rootUri": "file:///Users/anonnaabir/app/flutter/packages/flutter",
      "packageUri": "lib/",
      "languageVersion": "2.12"
    },
    {
      "name": "flutter_lints",
      "rootUri": "file:///Users/anonnaabir/.pub-cache/hosted/pub.dartlang.org/flutter_lints-2.0.1",
      "packageUri": "lib/",
      "languageVersion": "2.17"
    },
    {
      "name": "flutter_plugin_android_lifecycle",
      "rootUri": "file:///Users/anonnaabir/.pub-cache/hosted/pub.dartlang.org/flutter_plugin_android_lifecycle-2.0.6",
      "packageUri": "lib/",
      "languageVersion": "2.12"
    },
    {
      "name": "flutter_test",
      "rootUri": "file:///Users/anonnaabir/app/flutter/packages/flutter_test",
      "packageUri": "lib/",
      "languageVersion": "2.17"
    },
    {
      "name": "flutter_web_plugins",
      "rootUri": "file:///Users/anonnaabir/app/flutter/packages/flutter_web_plugins",
      "packageUri": "lib/",
      "languageVersion": "2.17"
    },
    {
      "name": "http",
      "rootUri": "file:///Users/anonnaabir/.pub-cache/hosted/pub.dartlang.org/http-0.13.4",
      "packageUri": "lib/",
      "languageVersion": "2.14"
    },
    {
      "name": "http_parser",
      "rootUri": "file:///Users/anonnaabir/.pub-cache/hosted/pub.dartlang.org/http_parser-4.0.1",
      "packageUri": "lib/",
      "languageVersion": "2.12"
    },
    {
      "name": "image_picker",
      "rootUri": "file:///Users/anonnaabir/.pub-cache/hosted/pub.dartlang.org/image_picker-0.8.5+3",
      "packageUri": "lib/",
      "languageVersion": "2.14"
    },
    {
      "name": "image_picker_android",
      "rootUri": "file:///Users/anonnaabir/.pub-cache/hosted/pub.dartlang.org/image_picker_android-0.8.4+13",
      "packageUri": "lib/",
      "languageVersion": "2.14"
    },
    {
      "name": "image_picker_for_web",
      "rootUri": "file:///Users/anonnaabir/.pub-cache/hosted/pub.dartlang.org/image_picker_for_web-2.1.8",
      "packageUri": "lib/",
      "languageVersion": "2.12"
    },
    {
      "name": "image_picker_ios",
      "rootUri": "file:///Users/anonnaabir/.pub-cache/hosted/pub.dartlang.org/image_picker_ios-0.8.5+5",
      "packageUri": "lib/",
      "languageVersion": "2.14"
    },
    {
      "name": "image_picker_platform_interface",
      "rootUri": "file:///Users/anonnaabir/.pub-cache/hosted/pub.dartlang.org/image_picker_platform_interface-2.5.0",
      "packageUri": "lib/",
      "languageVersion": "2.12"
    },
    {
      "name": "intl",
      "rootUri": "file:///Users/anonnaabir/.pub-cache/hosted/pub.dartlang.org/intl-0.17.0",
      "packageUri": "lib/",
      "languageVersion": "2.12"
    },
    {
      "name": "js",
      "rootUri": "file:///Users/anonnaabir/.pub-cache/hosted/pub.dartlang.org/js-0.6.4",
      "packageUri": "lib/",
      "languageVersion": "2.16"
    },
    {
      "name": "lints",
      "rootUri": "file:///Users/anonnaabir/.pub-cache/hosted/pub.dartlang.org/lints-2.0.0",
      "packageUri": "lib/",
      "languageVersion": "2.17"
    },
    {
      "name": "matcher",
      "rootUri": "file:///Users/anonnaabir/.pub-cache/hosted/pub.dartlang.org/matcher-0.12.11",
      "packageUri": "lib/",
      "languageVersion": "2.12"
    },
    {
      "name": "material_color_utilities",
      "rootUri": "file:///Users/anonnaabir/.pub-cache/hosted/pub.dartlang.org/material_color_utilities-0.1.4",
      "packageUri": "lib/",
      "languageVersion": "2.13"
    },
    {
      "name": "meta",
      "rootUri": "file:///Users/anonnaabir/.pub-cache/hosted/pub.dartlang.org/meta-1.7.0",
      "packageUri": "lib/",
      "languageVersion": "2.12"
    },
    {
      "name": "path",
      "rootUri": "file:///Users/anonnaabir/.pub-cache/hosted/pub.dartlang.org/path-1.8.1",
      "packageUri": "lib/",
      "languageVersion": "2.12"
    },
    {
      "name": "plugin_platform_interface",
      "rootUri": "file:///Users/anonnaabir/.pub-cache/hosted/pub.dartlang.org/plugin_platform_interface-2.1.2",
      "packageUri": "lib/",
      "languageVersion": "2.12"
    },
    {
      "name": "sky_engine",
      "rootUri": "file:///Users/anonnaabir/app/flutter/bin/cache/pkg/sky_engine",
      "packageUri": "lib/",
      "languageVersion": "2.12"
    },
    {
      "name": "source_span",
      "rootUri": "file:///Users/anonnaabir/.pub-cache/hosted/pub.dartlang.org/source_span-1.8.2",
      "packageUri": "lib/",
      "languageVersion": "2.14"
    },
    {
      "name": "stack_trace",
      "rootUri": "file:///Users/anonnaabir/.pub-cache/hosted/pub.dartlang.org/stack_trace-1.10.0",
      "packageUri": "lib/",
      "languageVersion": "2.12"
    },
    {
      "name": "stream_channel",
      "rootUri": "file:///Users/anonnaabir/.pub-cache/hosted/pub.dartlang.org/stream_channel-2.1.0",
      "packageUri": "lib/",
      "languageVersion": "2.12"
    },
    {
      "name": "string_scanner",
      "rootUri": "file:///Users/anonnaabir/.pub-cache/hosted/pub.dartlang.org/string_scanner-1.1.0",
      "packageUri": "lib/",
      "languageVersion": "2.12"
    },
    {
      "name": "term_glyph",
      "rootUri": "file:///Users/anonnaabir/.pub-cache/hosted/pub.dartlang.org/term_glyph-1.2.0",
      "packageUri": "lib/",
      "languageVersion": "2.12"
    },
    {
      "name": "test_api",
      "rootUri": "file:///Users/anonnaabir/.pub-cache/hosted/pub.dartlang.org/test_api-0.4.9",
      "packageUri": "lib/",
      "languageVersion": "2.12"
    },
    {
      "name": "typed_data",
      "rootUri": "file:///Users/anonnaabir/.pub-cache/hosted/pub.dartlang.org/typed_data-1.3.1",
      "packageUri": "lib/",
      "languageVersion": "2.12"
    },
    {
      "name": "vector_math",
      "rootUri": "file:///Users/anonnaabir/.pub-cache/hosted/pub.dartlang.org/vector_math-2.1.2",
      "packageUri": "lib/",
      "languageVersion": "2.14"
    },
    {
      "name": "sitesurveytool",
      "rootUri": "../",
      "packageUri": "lib/",
      "languageVersion": "2.17"
    }
  ],
  "generated": "2022-06-02T19:01:10.214550Z",
  "generator": "pub",
  "generatorVersion": "2.17.1"
}
